{
    "frames": [{
        "name": "sprite-0",
        "position": {
            "x": 0,
            "y": 0,
            "w": 32,
            "h": 32
        }
    },
    {
        "name": "sprite-1",
        "position": {
            "x": 32,
            "y": 0,
            "w": 32,
            "h": 32
        }
    },
    {
        "name": "sprite-2",
        "position": {
            "x": 64,
            "y": 0,
            "w": 32,
            "h": 32
        }
    }
    ]
}